{"droplets":[{"id":1334672,"name":"dumpsterrentalfayetteville.com","memory":2048,"vcpus":2,"disk":40,"locked":false,"status":"active","kernel":{"id":285,"name":"Ubuntu 12.04.3 Server amd64 vmlinuz-3.8.0-29-generic (285)","version":"3.8.0-29-generic"},"created_at":"2014-03-21T15:11:25Z","features":["virtio"],"backup_ids":[],"next_backup_window":null,"snapshot_ids":[2795600,2830941],"image":{"id":1505447,"name":"Ubuntu 12.04.3 x64","distribution":"Ubuntu","slug":null,"public":false,"regions":["nyc1","ams1","sfo1","nyc2","ams2","sgp1"],"created_at":"2013-12-11T16:23:33Z","min_disk_size":20,"type":"snapshot"},"size":{"slug":"2gb","memory":2048,"vcpus":2,"disk":40,"transfer":3.0,"price_monthly":20.0,"price_hourly":0.02976,"regions":["nyc2","sfo1","sgp1","lon1","nyc3","ams3","nyc1","ams2","fra1","tor1"],"available":true},"size_slug":"2gb","networks":{"v4":[{"ip_address":"107.170.121.4","netmask":"255.255.240.0","gateway":"107.170.112.1","type":"public"}],"v6":[]},"region":{"name":"New York 2","slug":"nyc2","sizes":["32gb","16gb","2gb","1gb","4gb","8gb","512mb","64gb","48gb"],"features":["private_networking","backups","ipv6","metadata"],"available":true}},{"id":1561692,"name":"eriemanagement.com","memory":512,"vcpus":1,"disk":20,"locked":false,"status":"active","kernel":{"id":22,"name":"Ubuntu 12.04 x32 vmlinuz-3.2.0-24-virtual","version":"3.2.0-24-virtual"},"created_at":"2014-04-30T15:09:43Z","features":["virtio"],"backup_ids":[],"next_backup_window":null,"snapshot_ids":[],"image":{"id":3120115,"name":"LAMP on Ubuntu 12.04","distribution":"Ubuntu","slug":null,"public":false,"regions":["nyc1","ams1","sfo1","nyc2","ams2","sgp1","lon1","nyc3","ams3","fra1","tor1"],"created_at":"2014-04-10T20:04:30Z","min_disk_size":20,"type":"snapshot"},"size":{"slug":"512mb","memory":512,"vcpus":1,"disk":20,"transfer":1.0,"price_monthly":5.0,"price_hourly":0.00744,"regions":["nyc1","sgp1","sfo1","nyc2","lon1","nyc3","ams3","ams2","fra1","tor1"],"available":true},"size_slug":"512mb","networks":{"v4":[{"ip_address":"107.170.156.86","netmask":"255.255.224.0","gateway":"107.170.128.1","type":"public"}],"v6":[]},"region":{"name":"New York 2","slug":"nyc2","sizes":["32gb","16gb","2gb","1gb","4gb","8gb","512mb","64gb","48gb"],"features":["private_networking","backups","ipv6","metadata"],"available":true}},{"id":1751838,"name":"bdwebprojects.com","memory":512,"vcpus":1,"disk":20,"locked":false,"status":"active","kernel":{"id":1143,"name":"Ubuntu 12.04 x64 vmlinuz-3.8.0-38-generic","version":"3.8.0-38-generic"},"created_at":"2014-05-30T20:55:44Z","features":["virtio"],"backup_ids":[],"next_backup_window":null,"snapshot_ids":[4168346],"image":{"id":3137903,"name":"Redmine on Ubuntu 12.04","distribution":"Ubuntu","slug":null,"public":false,"regions":["nyc1","ams1","sfo1","nyc2","ams2","sgp1","lon1","nyc3","ams3","fra1","tor1"],"created_at":"2014-04-11T20:14:47Z","min_disk_size":20,"type":"snapshot"},"size":{"slug":"512mb","memory":512,"vcpus":1,"disk":20,"transfer":1.0,"price_monthly":5.0,"price_hourly":0.00744,"regions":["nyc1","sgp1","sfo1","nyc2","lon1","nyc3","ams3","ams2","fra1","tor1"],"available":true},"size_slug":"512mb","networks":{"v4":[{"ip_address":"192.241.180.61","netmask":"255.255.255.0","gateway":"192.241.180.1","type":"public"}],"v6":[]},"region":{"name":"New York 2","slug":"nyc2","sizes":["32gb","16gb","2gb","1gb","4gb","8gb","512mb","64gb","48gb"],"features":["private_networking","backups","ipv6","metadata"],"available":true}},{"id":2225647,"name":"budgetdumpster.support","memory":512,"vcpus":1,"disk":20,"locked":false,"status":"active","kernel":{"id":1221,"name":"Ubuntu 14.04 x64 vmlinuz-3.13.0-24-generic (1221)","version":"3.13.0-24-generic"},"created_at":"2014-07-31T18:13:05Z","features":["virtio"],"backup_ids":[],"next_backup_window":null,"snapshot_ids":[],"image":{"id":5141286,"name":"Ubuntu 14.04 x64","distribution":"Ubuntu","slug":null,"public":false,"regions":["nyc1","ams1","sfo1","nyc2","ams2","sgp1","lon1","nyc3","ams3","fra1","tor1"],"created_at":"2014-07-23T17:08:52Z","min_disk_size":20,"type":"snapshot"},"size":{"slug":"512mb","memory":512,"vcpus":1,"disk":20,"transfer":1.0,"price_monthly":5.0,"price_hourly":0.00744,"regions":["nyc1","sgp1","sfo1","nyc2","lon1","nyc3","ams3","ams2","fra1","tor1"],"available":true},"size_slug":"512mb","networks":{"v4":[{"ip_address":"104.131.219.111","netmask":"255.255.224.0","gateway":"104.131.192.1","type":"public"}],"v6":[]},"region":{"name":"New York 2","slug":"nyc2","sizes":["32gb","16gb","2gb","1gb","4gb","8gb","512mb","64gb","48gb"],"features":["private_networking","backups","ipv6","metadata"],"available":true}},{"id":2262463,"name":"host.dirtymushroom.com","memory":2048,"vcpus":2,"disk":40,"locked":false,"status":"active","kernel":{"id":1221,"name":"Ubuntu 14.04 x64 vmlinuz-3.13.0-24-generic (1221)","version":"3.13.0-24-generic"},"created_at":"2014-08-05T18:41:16Z","features":["virtio"],"backup_ids":[],"next_backup_window":null,"snapshot_ids":[5560958],"image":{"id":3961756,"name":"LAMP on Ubuntu 14.04","distribution":"Ubuntu","slug":null,"public":false,"regions":["nyc1","ams1","sfo1","nyc2","ams2","sgp1","lon1","nyc3","ams3","fra1","tor1"],"created_at":"2014-05-20T17:38:10Z","min_disk_size":20,"type":"snapshot"},"size":{"slug":"2gb","memory":2048,"vcpus":2,"disk":40,"transfer":3.0,"price_monthly":20.0,"price_hourly":0.02976,"regions":["nyc2","sfo1","sgp1","lon1","nyc3","ams3","nyc1","ams2","fra1","tor1"],"available":true},"size_slug":"2gb","networks":{"v4":[{"ip_address":"104.131.200.60","netmask":"255.255.224.0","gateway":"104.131.192.1","type":"public"}],"v6":[]},"region":{"name":"New York 2","slug":"nyc2","sizes":["32gb","16gb","2gb","1gb","4gb","8gb","512mb","64gb","48gb"],"features":["private_networking","backups","ipv6","metadata"],"available":true}},{"id":5236395,"name":"wheeljack","memory":2048,"vcpus":2,"disk":40,"locked":false,"status":"active","kernel":{"id":2924,"name":"Ubuntu 14.04 x64 vmlinuz-3.13.0-43-generic","version":"3.13.0-43-generic"},"created_at":"2015-05-11T13:22:31Z","features":["backups","virtio"],"backup_ids":[14268288,14368891,14471321,14575267],"next_backup_window":{"start":"2015-12-02T00:00:00Z","end":"2015-12-02T23:00:00Z"},"snapshot_ids":[],"image":{"id":9801950,"name":"14.04 x64","distribution":"Ubuntu","slug":null,"public":false,"regions":["nyc1","ams1","sfo1","nyc2","ams2","sgp1","lon1","nyc3","ams3","fra1","tor1"],"created_at":"2015-01-08T18:41:13Z","min_disk_size":20,"type":"snapshot"},"size":{"slug":"2gb","memory":2048,"vcpus":2,"disk":40,"transfer":3.0,"price_monthly":20.0,"price_hourly":0.02976,"regions":["nyc2","sfo1","sgp1","lon1","nyc3","ams3","nyc1","ams2","fra1","tor1"],"available":true},"size_slug":"2gb","networks":{"v4":[{"ip_address":"45.55.144.238","netmask":"255.255.192.0","gateway":"45.55.128.1","type":"public"}],"v6":[]},"region":{"name":"New York 3","slug":"nyc3","sizes":["32gb","16gb","2gb","1gb","4gb","8gb","512mb","64gb","48gb"],"features":["private_networking","backups","ipv6","metadata"],"available":true}},{"id":5746039,"name":"Starscream","memory":2048,"vcpus":2,"disk":40,"locked":false,"status":"active","kernel":{"id":4703,"name":"Ubuntu 14.04 x64 vmlinuz-3.13.0-52-generic","version":"3.13.0-52-generic"},"created_at":"2015-06-16T19:45:57Z","features":["backups","virtio"],"backup_ids":[14291209,14389686,14491206,14601028],"next_backup_window":{"start":"2015-12-04T00:00:00Z","end":"2015-12-04T23:00:00Z"},"snapshot_ids":[],"image":{"id":11836690,"name":"14.04 x64","distribution":"Ubuntu","slug":null,"public":false,"regions":["nyc1","ams1","sfo1","nyc2","ams2","sgp1","lon1","nyc3","ams3","fra1","tor1"],"created_at":"2015-05-12T23:51:05Z","min_disk_size":20,"type":"snapshot"},"size":{"slug":"2gb","memory":2048,"vcpus":2,"disk":40,"transfer":3.0,"price_monthly":20.0,"price_hourly":0.02976,"regions":["nyc2","sfo1","sgp1","lon1","nyc3","ams3","nyc1","ams2","fra1","tor1"],"available":true},"size_slug":"2gb","networks":{"v4":[{"ip_address":"45.55.88.159","netmask":"255.255.224.0","gateway":"45.55.64.1","type":"public"}],"v6":[]},"region":{"name":"New York 3","slug":"nyc3","sizes":["32gb","16gb","2gb","1gb","4gb","8gb","512mb","64gb","48gb"],"features":["private_networking","backups","ipv6","metadata"],"available":true}},{"id":5820688,"name":"bdso.budgetdumpster.com","memory":4096,"vcpus":2,"disk":60,"locked":false,"status":"active","kernel":{"id":4703,"name":"Ubuntu 14.04 x64 vmlinuz-3.13.0-52-generic","version":"3.13.0-52-generic"},"created_at":"2015-06-22T15:02:08Z","features":["virtio"],"backup_ids":[],"next_backup_window":null,"snapshot_ids":[13017190,13978340,13978713],"image":{"id":11836690,"name":"14.04 x64","distribution":"Ubuntu","slug":null,"public":false,"regions":["nyc1","ams1","sfo1","nyc2","ams2","sgp1","lon1","nyc3","ams3","fra1","tor1"],"created_at":"2015-05-12T23:51:05Z","min_disk_size":20,"type":"snapshot"},"size":{"slug":"4gb","memory":4096,"vcpus":2,"disk":60,"transfer":4.0,"price_monthly":40.0,"price_hourly":0.05952,"regions":["nyc2","sgp1","lon1","nyc3","ams3","nyc1","ams2","sfo1","fra1","tor1"],"available":true},"size_slug":"4gb","networks":{"v4":[{"ip_address":"162.243.239.62","netmask":"255.255.255.0","gateway":"162.243.239.1","type":"public"}],"v6":[]},"region":{"name":"New York 2","slug":"nyc2","sizes":["32gb","16gb","2gb","1gb","4gb","8gb","512mb","64gb","48gb"],"features":["private_networking","backups","ipv6","metadata"],"available":true}},{"id":6311773,"name":"balancer.budgetdumpster.com","memory":1024,"vcpus":1,"disk":30,"locked":false,"status":"active","kernel":{"id":5175,"name":"Ubuntu 14.04 x64 vmlinuz-3.13.0-57-generic","version":"3.13.0-57-generic"},"created_at":"2015-07-27T16:20:36Z","features":["virtio"],"backup_ids":[],"next_backup_window":null,"snapshot_ids":[],"image":{"id":12790328,"name":"14.04 x64","distribution":"Ubuntu","slug":null,"public":false,"regions":["nyc1","ams1","sfo1","nyc2","ams2","sgp1","lon1","nyc3","ams3","fra1","tor1"],"created_at":"2015-07-17T16:39:08Z","min_disk_size":20,"type":"snapshot"},"size":{"slug":"1gb","memory":1024,"vcpus":1,"disk":30,"transfer":2.0,"price_monthly":10.0,"price_hourly":0.01488,"regions":["nyc2","sgp1","sfo1","lon1","nyc3","ams3","nyc1","ams2","fra1","tor1"],"available":true},"size_slug":"1gb","networks":{"v4":[{"ip_address":"104.236.147.251","netmask":"255.255.192.0","gateway":"104.236.128.1","type":"public"}],"v6":[]},"region":{"name":"San Francisco 1","slug":"sfo1","sizes":["32gb","16gb","2gb","1gb","4gb","8gb","512mb","64gb","48gb"],"features":["private_networking","backups","ipv6","metadata"],"available":true}},{"id":6421855,"name":"host2.budgetdumpster.com","memory":4096,"vcpus":2,"disk":60,"locked":false,"status":"active","kernel":{"id":4703,"name":"Ubuntu 14.04 x64 vmlinuz-3.13.0-52-generic","version":"3.13.0-52-generic"},"created_at":"2015-08-05T02:21:09Z","features":["backups","virtio"],"backup_ids":[14308930,14411599,14513778,14616118],"next_backup_window":{"start":"2015-12-05T00:00:00Z","end":"2015-12-05T23:00:00Z"},"snapshot_ids":[],"image":{"id":13017190,"name":"Snapshot842015","distribution":"Ubuntu","slug":null,"public":false,"regions":["nyc2","nyc3"],"created_at":"2015-08-05T01:24:52Z","min_disk_size":40,"type":"snapshot"},"size":{"slug":"4gb","memory":4096,"vcpus":2,"disk":60,"transfer":4.0,"price_monthly":40.0,"price_hourly":0.05952,"regions":["nyc2","sgp1","lon1","nyc3","ams3","nyc1","ams2","sfo1","fra1","tor1"],"available":true},"size_slug":"4gb","networks":{"v4":[{"ip_address":"45.55.162.171","netmask":"255.255.192.0","gateway":"45.55.128.1","type":"public"}],"v6":[]},"region":{"name":"New York 3","slug":"nyc3","sizes":["32gb","16gb","2gb","1gb","4gb","8gb","512mb","64gb","48gb"],"features":["private_networking","backups","ipv6","metadata"],"available":true}},{"id":7249487,"name":"Andromeda","memory":2048,"vcpus":2,"disk":40,"locked":false,"status":"active","kernel":{"id":5175,"name":"Ubuntu 14.04 x64 vmlinuz-3.13.0-57-generic","version":"3.13.0-57-generic"},"created_at":"2015-09-11T15:21:13Z","features":["virtio"],"backup_ids":[],"next_backup_window":null,"snapshot_ids":[],"image":{"id":13089493,"name":"14.04 x64","distribution":"Ubuntu","slug":null,"public":false,"regions":["nyc1","ams1","sfo1","nyc2","ams2","sgp1","lon1","nyc3","ams3","fra1","tor1"],"created_at":"2015-08-10T21:30:19Z","min_disk_size":20,"type":"snapshot"},"size":{"slug":"2gb","memory":2048,"vcpus":2,"disk":40,"transfer":3.0,"price_monthly":20.0,"price_hourly":0.02976,"regions":["nyc2","sfo1","sgp1","lon1","nyc3","ams3","nyc1","ams2","fra1","tor1"],"available":true},"size_slug":"2gb","networks":{"v4":[{"ip_address":"104.131.226.220","netmask":"255.255.224.0","gateway":"104.131.224.1","type":"public"}],"v6":[]},"region":{"name":"New York 2","slug":"nyc2","sizes":["32gb","16gb","2gb","1gb","4gb","8gb","512mb","64gb","48gb"],"features":["private_networking","backups","ipv6","metadata"],"available":true}},{"id":7249516,"name":"Antila","memory":2048,"vcpus":2,"disk":40,"locked":false,"status":"active","kernel":{"id":5175,"name":"Ubuntu 14.04 x64 vmlinuz-3.13.0-57-generic","version":"3.13.0-57-generic"},"created_at":"2015-09-11T15:22:06Z","features":["virtio"],"backup_ids":[],"next_backup_window":null,"snapshot_ids":[],"image":{"id":13089493,"name":"14.04 x64","distribution":"Ubuntu","slug":null,"public":false,"regions":["nyc1","ams1","sfo1","nyc2","ams2","sgp1","lon1","nyc3","ams3","fra1","tor1"],"created_at":"2015-08-10T21:30:19Z","min_disk_size":20,"type":"snapshot"},"size":{"slug":"2gb","memory":2048,"vcpus":2,"disk":40,"transfer":3.0,"price_monthly":20.0,"price_hourly":0.02976,"regions":["nyc2","sfo1","sgp1","lon1","nyc3","ams3","nyc1","ams2","fra1","tor1"],"available":true},"size_slug":"2gb","networks":{"v4":[{"ip_address":"45.55.34.238","netmask":"255.255.224.0","gateway":"45.55.32.1","type":"public"}],"v6":[]},"region":{"name":"New York 3","slug":"nyc3","sizes":["32gb","16gb","2gb","1gb","4gb","8gb","512mb","64gb","48gb"],"features":["private_networking","backups","ipv6","metadata"],"available":true}},{"id":7249518,"name":"Caelum","memory":2048,"vcpus":2,"disk":40,"locked":false,"status":"active","kernel":{"id":5175,"name":"Ubuntu 14.04 x64 vmlinuz-3.13.0-57-generic","version":"3.13.0-57-generic"},"created_at":"2015-09-11T15:22:06Z","features":["virtio"],"backup_ids":[],"next_backup_window":null,"snapshot_ids":[],"image":{"id":13089493,"name":"14.04 x64","distribution":"Ubuntu","slug":null,"public":false,"regions":["nyc1","ams1","sfo1","nyc2","ams2","sgp1","lon1","nyc3","ams3","fra1","tor1"],"created_at":"2015-08-10T21:30:19Z","min_disk_size":20,"type":"snapshot"},"size":{"slug":"2gb","memory":2048,"vcpus":2,"disk":40,"transfer":3.0,"price_monthly":20.0,"price_hourly":0.02976,"regions":["nyc2","sfo1","sgp1","lon1","nyc3","ams3","nyc1","ams2","fra1","tor1"],"available":true},"size_slug":"2gb","networks":{"v4":[{"ip_address":"162.243.30.109","netmask":"255.255.255.0","gateway":"162.243.30.1","type":"public"}],"v6":[]},"region":{"name":"New York 2","slug":"nyc2","sizes":["32gb","16gb","2gb","1gb","4gb","8gb","512mb","64gb","48gb"],"features":["private_networking","backups","ipv6","metadata"],"available":true}},{"id":7249519,"name":"Camelopardalis","memory":2048,"vcpus":2,"disk":40,"locked":false,"status":"active","kernel":{"id":5175,"name":"Ubuntu 14.04 x64 vmlinuz-3.13.0-57-generic","version":"3.13.0-57-generic"},"created_at":"2015-09-11T15:22:07Z","features":["virtio"],"backup_ids":[],"next_backup_window":null,"snapshot_ids":[],"image":{"id":13089493,"name":"14.04 x64","distribution":"Ubuntu","slug":null,"public":false,"regions":["nyc1","ams1","sfo1","nyc2","ams2","sgp1","lon1","nyc3","ams3","fra1","tor1"],"created_at":"2015-08-10T21:30:19Z","min_disk_size":20,"type":"snapshot"},"size":{"slug":"2gb","memory":2048,"vcpus":2,"disk":40,"transfer":3.0,"price_monthly":20.0,"price_hourly":0.02976,"regions":["nyc2","sfo1","sgp1","lon1","nyc3","ams3","nyc1","ams2","fra1","tor1"],"available":true},"size_slug":"2gb","networks":{"v4":[{"ip_address":"45.55.219.107","netmask":"255.255.192.0","gateway":"45.55.192.1","type":"public"}],"v6":[]},"region":{"name":"New York 3","slug":"nyc3","sizes":["32gb","16gb","2gb","1gb","4gb","8gb","512mb","64gb","48gb"],"features":["private_networking","backups","ipv6","metadata"],"available":true}},{"id":7249520,"name":"Cassiopeia","memory":2048,"vcpus":2,"disk":40,"locked":false,"status":"active","kernel":{"id":5175,"name":"Ubuntu 14.04 x64 vmlinuz-3.13.0-57-generic","version":"3.13.0-57-generic"},"created_at":"2015-09-11T15:22:07Z","features":["virtio"],"backup_ids":[],"next_backup_window":null,"snapshot_ids":[],"image":{"id":13089493,"name":"14.04 x64","distribution":"Ubuntu","slug":null,"public":false,"regions":["nyc1","ams1","sfo1","nyc2","ams2","sgp1","lon1","nyc3","ams3","fra1","tor1"],"created_at":"2015-08-10T21:30:19Z","min_disk_size":20,"type":"snapshot"},"size":{"slug":"2gb","memory":2048,"vcpus":2,"disk":40,"transfer":3.0,"price_monthly":20.0,"price_hourly":0.02976,"regions":["nyc2","sfo1","sgp1","lon1","nyc3","ams3","nyc1","ams2","fra1","tor1"],"available":true},"size_slug":"2gb","networks":{"v4":[{"ip_address":"107.170.161.184","netmask":"255.255.224.0","gateway":"107.170.160.1","type":"public"}],"v6":[]},"region":{"name":"New York 2","slug":"nyc2","sizes":["32gb","16gb","2gb","1gb","4gb","8gb","512mb","64gb","48gb"],"features":["private_networking","backups","ipv6","metadata"],"available":true}},{"id":7249521,"name":"Centaurus","memory":2048,"vcpus":2,"disk":40,"locked":false,"status":"active","kernel":{"id":5175,"name":"Ubuntu 14.04 x64 vmlinuz-3.13.0-57-generic","version":"3.13.0-57-generic"},"created_at":"2015-09-11T15:22:08Z","features":["virtio"],"backup_ids":[],"next_backup_window":null,"snapshot_ids":[],"image":{"id":13089493,"name":"14.04 x64","distribution":"Ubuntu","slug":null,"public":false,"regions":["nyc1","ams1","sfo1","nyc2","ams2","sgp1","lon1","nyc3","ams3","fra1","tor1"],"created_at":"2015-08-10T21:30:19Z","min_disk_size":20,"type":"snapshot"},"size":{"slug":"2gb","memory":2048,"vcpus":2,"disk":40,"transfer":3.0,"price_monthly":20.0,"price_hourly":0.02976,"regions":["nyc2","sfo1","sgp1","lon1","nyc3","ams3","nyc1","ams2","fra1","tor1"],"available":true},"size_slug":"2gb","networks":{"v4":[{"ip_address":"45.55.53.170","netmask":"255.255.224.0","gateway":"45.55.32.1","type":"public"}],"v6":[]},"region":{"name":"New York 3","slug":"nyc3","sizes":["32gb","16gb","2gb","1gb","4gb","8gb","512mb","64gb","48gb"],"features":["private_networking","backups","ipv6","metadata"],"available":true}},{"id":7249522,"name":"Cepheus","memory":2048,"vcpus":2,"disk":40,"locked":false,"status":"active","kernel":{"id":5175,"name":"Ubuntu 14.04 x64 vmlinuz-3.13.0-57-generic","version":"3.13.0-57-generic"},"created_at":"2015-09-11T15:22:08Z","features":["virtio"],"backup_ids":[],"next_backup_window":null,"snapshot_ids":[],"image":{"id":13089493,"name":"14.04 x64","distribution":"Ubuntu","slug":null,"public":false,"regions":["nyc1","ams1","sfo1","nyc2","ams2","sgp1","lon1","nyc3","ams3","fra1","tor1"],"created_at":"2015-08-10T21:30:19Z","min_disk_size":20,"type":"snapshot"},"size":{"slug":"2gb","memory":2048,"vcpus":2,"disk":40,"transfer":3.0,"price_monthly":20.0,"price_hourly":0.02976,"regions":["nyc2","sfo1","sgp1","lon1","nyc3","ams3","nyc1","ams2","fra1","tor1"],"available":true},"size_slug":"2gb","networks":{"v4":[{"ip_address":"162.243.47.122","netmask":"255.255.255.0","gateway":"162.243.47.1","type":"public"}],"v6":[]},"region":{"name":"New York 2","slug":"nyc2","sizes":["32gb","16gb","2gb","1gb","4gb","8gb","512mb","64gb","48gb"],"features":["private_networking","backups","ipv6","metadata"],"available":true}},{"id":7249523,"name":"Cygnus","memory":2048,"vcpus":2,"disk":40,"locked":false,"status":"active","kernel":{"id":5175,"name":"Ubuntu 14.04 x64 vmlinuz-3.13.0-57-generic","version":"3.13.0-57-generic"},"created_at":"2015-09-11T15:22:09Z","features":["virtio"],"backup_ids":[],"next_backup_window":null,"snapshot_ids":[],"image":{"id":13089493,"name":"14.04 x64","distribution":"Ubuntu","slug":null,"public":false,"regions":["nyc1","ams1","sfo1","nyc2","ams2","sgp1","lon1","nyc3","ams3","fra1","tor1"],"created_at":"2015-08-10T21:30:19Z","min_disk_size":20,"type":"snapshot"},"size":{"slug":"2gb","memory":2048,"vcpus":2,"disk":40,"transfer":3.0,"price_monthly":20.0,"price_hourly":0.02976,"regions":["nyc2","sfo1","sgp1","lon1","nyc3","ams3","nyc1","ams2","fra1","tor1"],"available":true},"size_slug":"2gb","networks":{"v4":[{"ip_address":"104.236.72.226","netmask":"255.255.192.0","gateway":"104.236.64.1","type":"public"}],"v6":[]},"region":{"name":"New York 3","slug":"nyc3","sizes":["32gb","16gb","2gb","1gb","4gb","8gb","512mb","64gb","48gb"],"features":["private_networking","backups","ipv6","metadata"],"available":true}},{"id":7249524,"name":"Dorado","memory":2048,"vcpus":2,"disk":40,"locked":false,"status":"active","kernel":{"id":5175,"name":"Ubuntu 14.04 x64 vmlinuz-3.13.0-57-generic","version":"3.13.0-57-generic"},"created_at":"2015-09-11T15:22:09Z","features":["virtio"],"backup_ids":[],"next_backup_window":null,"snapshot_ids":[],"image":{"id":13089493,"name":"14.04 x64","distribution":"Ubuntu","slug":null,"public":false,"regions":["nyc1","ams1","sfo1","nyc2","ams2","sgp1","lon1","nyc3","ams3","fra1","tor1"],"created_at":"2015-08-10T21:30:19Z","min_disk_size":20,"type":"snapshot"},"size":{"slug":"2gb","memory":2048,"vcpus":2,"disk":40,"transfer":3.0,"price_monthly":20.0,"price_hourly":0.02976,"regions":["nyc2","sfo1","sgp1","lon1","nyc3","ams3","nyc1","ams2","fra1","tor1"],"available":true},"size_slug":"2gb","networks":{"v4":[{"ip_address":"162.243.124.199","netmask":"255.255.255.0","gateway":"162.243.124.1","type":"public"}],"v6":[]},"region":{"name":"New York 2","slug":"nyc2","sizes":["32gb","16gb","2gb","1gb","4gb","8gb","512mb","64gb","48gb"],"features":["private_networking","backups","ipv6","metadata"],"available":true}},{"id":7249525,"name":"Eridanus","memory":2048,"vcpus":2,"disk":40,"locked":false,"status":"active","kernel":{"id":5175,"name":"Ubuntu 14.04 x64 vmlinuz-3.13.0-57-generic","version":"3.13.0-57-generic"},"created_at":"2015-09-11T15:22:10Z","features":["virtio"],"backup_ids":[],"next_backup_window":null,"snapshot_ids":[],"image":{"id":13089493,"name":"14.04 x64","distribution":"Ubuntu","slug":null,"public":false,"regions":["nyc1","ams1","sfo1","nyc2","ams2","sgp1","lon1","nyc3","ams3","fra1","tor1"],"created_at":"2015-08-10T21:30:19Z","min_disk_size":20,"type":"snapshot"},"size":{"slug":"2gb","memory":2048,"vcpus":2,"disk":40,"transfer":3.0,"price_monthly":20.0,"price_hourly":0.02976,"regions":["nyc2","sfo1","sgp1","lon1","nyc3","ams3","nyc1","ams2","fra1","tor1"],"available":true},"size_slug":"2gb","networks":{"v4":[{"ip_address":"104.236.217.108","netmask":"255.255.192.0","gateway":"104.236.192.1","type":"public"}],"v6":[]},"region":{"name":"New York 3","slug":"nyc3","sizes":["32gb","16gb","2gb","1gb","4gb","8gb","512mb","64gb","48gb"],"features":["private_networking","backups","ipv6","metadata"],"available":true}}],"links":{"pages":{"last":"https://api.digitalocean.com/v2/droplets?page=2&per_page51=","next":"https://api.digitalocean.com/v2/droplets?page=2&per_page51="}},"meta":{"total":36}}
